<?xml version="1.0" encoding="UTF-8" standalone="no"?>
<!-- Generiert durch Microsoft Visio, SVG Export QBorg_Icon2-3-3.svg Page-1 -->

<svg
   xmlns:v="http://schemas.microsoft.com/visio/2003/SVGExtensions/"
   xmlns:dc="http://purl.org/dc/elements/1.1/"
   xmlns:cc="http://creativecommons.org/ns#"
   xmlns:rdf="http://www.w3.org/1999/02/22-rdf-syntax-ns#"
   xmlns:svg="http://www.w3.org/2000/svg"
   xmlns="http://www.w3.org/2000/svg"
   xmlns:sodipodi="http://sodipodi.sourceforge.net/DTD/sodipodi-0.dtd"
   xmlns:inkscape="http://www.inkscape.org/namespaces/inkscape"
   width="7.3467498in"
   height="7.3467498in"
   viewBox="0 0 528.96676 528.96611"
   xml:space="preserve"
   class="st14"
   version="1.1"
   id="svg256"
   sodipodi:docname="qborg.svg"
   style="font-size:12px;overflow:visible;color-interpolation-filters:sRGB;fill:none;fill-rule:evenodd;stroke-linecap:square;stroke-miterlimit:3"
   inkscape:version="0.92.2 2405546, 2018-03-11"><metadata
   id="metadata262"><rdf:RDF><cc:Work
       rdf:about=""><dc:format>image/svg+xml</dc:format><dc:type
         rdf:resource="http://purl.org/dc/dcmitype/StillImage" /><dc:title></dc:title></cc:Work></rdf:RDF></metadata><defs
   id="defs260" /><sodipodi:namedview
   pagecolor="#ffffff"
   bordercolor="#666666"
   borderopacity="1"
   objecttolerance="10"
   gridtolerance="10"
   guidetolerance="10"
   inkscape:pageopacity="0"
   inkscape:pageshadow="2"
   inkscape:window-width="957"
   inkscape:window-height="1010"
   id="namedview258"
   showgrid="false"
   fit-margin-top="0.1"
   fit-margin-left="0.1"
   fit-margin-right="0.1"
   fit-margin-bottom="0.1"
   inkscape:zoom="0.70300067"
   inkscape:cx="363.9561"
   inkscape:cy="350.42432"
   inkscape:window-x="959"
   inkscape:window-y="50"
   inkscape:window-maximized="0"
   inkscape:current-layer="svg256" />
	<v:documentProperties
   v:langID="1031"
   v:metric="true"
   v:viewMarkup="false">
		<v:userDefs>
			<v:ud
   v:nameU="msvSubprocessMaster"
   v:prompt=""
   v:val="VT4(Rectangle)" />
			<v:ud
   v:nameU="msvNoAutoConnect"
   v:val="VT0(1):26" />
		</v:userDefs>
	</v:documentProperties>

	<style
   type="text/css"
   id="style2">
	<![CDATA[
		.st1 {fill:#595959;stroke:#000000;stroke-width:10}
		.st2 {fill:#3f3f3f;stroke:none;stroke-width:0.75}
		.st3 {fill:#3f3f3f;stroke:none;stroke-width:0.25}
		.st4 {fill:#c00000;stroke:none;stroke-width:15}
		.st5 {fill:#f2f2f2;stroke:none;stroke-width:15}
		.st6 {fill:#c00000;stroke:none;stroke-width:0.25}
		.st7 {fill:#f2f2f2;stroke:none;stroke-width:0.25}
		.st8 {fill:#a5a5a5;stroke:none;stroke-width:0.25}
		.st9 {fill:#c00000;stroke:none;stroke-width:0.75}
		.st10 {fill:#f2f2f2;stroke:none;stroke-width:0.75}
		.st11 {stroke:#7f7f7f;stroke-linecap:round;stroke-linejoin:round;stroke-width:2.75}
		.st12 {fill:#d8d8d8;stroke:none;stroke-width:0.75}
		.st13 {fill:#595959;stroke:none;stroke-width:0.75}
		.st14 {fill:none;fill-rule:evenodd;font-size:12px;overflow:visible;stroke-linecap:square;stroke-miterlimit:3}
	]]>
	</style>

	<g
   v:mID="0"
   v:index="1"
   v:groupContext="foregroundPage"
   id="g254"
   transform="translate(71.727582,-18.981688)">
		<v:userDefs>
			<v:ud
   v:nameU="msvThemeOrder"
   v:val="VT0(0):26" />
		</v:userDefs>
		<title
   id="title4">Zeichenblatt-1</title>
		<v:pageProperties
   v:drawingScale="0.0393701"
   v:pageScale="0.0393701"
   v:drawingUnits="24"
   v:shadowOffsetX="8.50394"
   v:shadowOffsetY="-8.50394" />
		<g
   id="shape11-1"
   v:mID="11"
   v:groupContext="shape"
   transform="translate(25.5118,-59.5276)">
			<title
   id="title6">Tabelle.11</title>
			<rect
   x="0"
   y="90.708702"
   width="334.48801"
   height="504.56699"
   rx="5.6692901"
   ry="5.6692901"
   class="st1"
   id="rect8"
   style="fill:#595959;stroke:#000000;stroke-width:10" />
		</g>
		<g
   id="shape21-3"
   v:mID="21"
   v:groupContext="shape"
   transform="translate(63.4811,-90.6341)">
			<title
   id="title11">Tabelle.21</title>
			<path
   d="m 23.09,595.28 h 95.25 l 52.34,-52.34 V 491.21 L 118.89,439.43 H 108.13 L 0,547.56 19.37,566.93 v 28.35 z"
   class="st2"
   id="path13"
   inkscape:connector-curvature="0"
   style="fill:#3f3f3f;stroke:none;stroke-width:0.75" />
		</g>
		<g
   id="shape13-5"
   v:mID="13"
   v:groupContext="shape"
   transform="translate(93.2598,-164.409)">
			<title
   id="title16">Tabelle.13</title>
			<rect
   x="0"
   y="410.63"
   width="224.22"
   height="184.646"
   class="st3"
   id="rect18"
   style="fill:#3f3f3f;stroke:none;stroke-width:0.25" />
		</g>
		<g
   id="shape12-7"
   v:mID="12"
   v:groupContext="shape"
   transform="translate(36.1417,-237.582)">
			<title
   id="title21">Tabelle.12</title>
			<ellipse
   cx="156.614"
   cy="440.26001"
   rx="156.614"
   ry="155.01601"
   class="st3"
   id="ellipse23"
   style="fill:#3f3f3f;stroke:none;stroke-width:0.25" />
		</g>
		<g
   id="shape20-9"
   v:mID="20"
   v:groupContext="shape"
   transform="translate(162.694,-127.619)">
			<title
   id="title26">Tabelle.20</title>
			<path
   d="m 23.09,595.28 h 95.25 l 52.34,-54.24 V 487.43 L 118.89,433.76 H 108.13 L 0,545.83 19.37,565.9 v 29.38 z"
   class="st2"
   id="path28"
   inkscape:connector-curvature="0"
   style="fill:#3f3f3f;stroke:none;stroke-width:0.75" />
		</g>
		<g
   id="shape1-11"
   v:mID="1"
   v:groupContext="shape"
   transform="translate(53.8583,-255.118)">
			<title
   id="title31">Tabelle.1</title>
			<ellipse
   cx="138.89799"
   cy="457.79501"
   rx="138.89799"
   ry="137.48"
   class="st4"
   id="ellipse33"
   style="fill:#c00000;stroke:none;stroke-width:15" />
		</g>
		<g
   id="shape208-13"
   v:mID="208"
   v:groupContext="shape"
   transform="translate(66.6142,-267.744)">
			<title
   id="title36">Tabelle.208</title>
			<ellipse
   cx="126.142"
   cy="470.42099"
   rx="126.142"
   ry="124.855"
   class="st5"
   id="ellipse38"
   style="fill:#f2f2f2;stroke:none;stroke-width:15" />
		</g>
		<g
   id="shape2-15"
   v:mID="2"
   v:groupContext="shape"
   transform="translate(148.558,-348.851)">
			<title
   id="title41">Tabelle.2</title>
			<ellipse
   cx="44.198101"
   cy="551.52802"
   rx="44.198101"
   ry="43.747101"
   class="st6"
   id="ellipse43"
   style="fill:#c00000;stroke:none;stroke-width:0.25" />
		</g>
		<g
   id="shape3-17"
   v:mID="3"
   v:groupContext="shape"
   transform="translate(155.165,-355.391)">
			<title
   id="title46">Tabelle.3</title>
			<ellipse
   cx="37.5909"
   cy="558.06799"
   rx="37.5909"
   ry="37.207401"
   class="st7"
   id="ellipse48"
   style="fill:#f2f2f2;stroke:none;stroke-width:0.25" />
		</g>
		<g
   id="group10-19"
   transform="translate(155.165,-355.391)"
   v:mID="10"
   v:groupContext="group">
			<title
   id="title51">Tabelle.10</title>
			<g
   id="shape4-20"
   v:mID="4"
   v:groupContext="shape">
				<title
   id="title53">Tabelle.4</title>
				<ellipse
   cx="37.5909"
   cy="558.06799"
   rx="37.5909"
   ry="37.207401"
   class="st7"
   id="ellipse55"
   style="fill:#f2f2f2;stroke:none;stroke-width:0.25" />
			</g>
			<g
   id="shape5-22"
   v:mID="5"
   v:groupContext="shape"
   transform="translate(16.1774,-15.719)">
				<title
   id="title58">Tabelle.5</title>
				<ellipse
   cx="4.2958002"
   cy="591.02399"
   rx="4.2958002"
   ry="4.2519698"
   class="st8"
   id="ellipse60"
   style="fill:#a5a5a5;stroke:none;stroke-width:0.25" />
			</g>
			<g
   id="shape7-24"
   v:mID="7"
   v:groupContext="shape"
   transform="translate(50.5205,-15.6641)">
				<title
   id="title63">Tabelle.7</title>
				<ellipse
   cx="4.2958002"
   cy="591.02399"
   rx="4.2958002"
   ry="4.2519698"
   class="st8"
   id="ellipse65"
   style="fill:#a5a5a5;stroke:none;stroke-width:0.25" />
			</g>
			<g
   id="shape8-26"
   v:mID="8"
   v:groupContext="shape"
   transform="translate(50.5205,-50.1918)">
				<title
   id="title68">Tabelle.8</title>
				<ellipse
   cx="4.2958002"
   cy="591.02399"
   rx="4.2958002"
   ry="4.2519698"
   class="st8"
   id="ellipse70"
   style="fill:#a5a5a5;stroke:none;stroke-width:0.25" />
			</g>
			<g
   id="shape9-28"
   v:mID="9"
   v:groupContext="shape"
   transform="translate(15.9378,-50.2467)">
				<title
   id="title73">Tabelle.9</title>
				<ellipse
   cx="4.2958002"
   cy="591.02399"
   rx="4.2958002"
   ry="4.2519698"
   class="st8"
   id="ellipse75"
   style="fill:#a5a5a5;stroke:none;stroke-width:0.25" />
			</g>
		</g>
		<g
   id="shape40-30"
   v:mID="40"
   v:groupContext="shape"
   transform="translate(283.465,-197.008)">
			<title
   id="title79">Tabelle.40</title>
			<ellipse
   cx="4.2958002"
   cy="591.02399"
   rx="4.2958002"
   ry="4.2519698"
   class="st8"
   id="ellipse81"
   style="fill:#a5a5a5;stroke:none;stroke-width:0.25" />
		</g>
		<g
   id="group57-32"
   transform="rotate(-10,-832.2715,-691.64028)"
   v:mID="57"
   v:groupContext="group">
			<title
   id="title84">Tabelle.57</title>
			<g
   id="group53-33"
   transform="rotate(178,62.174676,506.1541)"
   v:mID="53"
   v:groupContext="group">
				<title
   id="title86">Tabelle.53</title>
				<g
   id="shape46-34"
   v:mID="46"
   v:groupContext="shape"
   transform="translate(7.72655)">
					<title
   id="title88">Tabelle.46</title>
					<path
   d="m 66.34,444.47 -63.93,33.4 a 2,2 -180 0 0 -0.48,3.18 l 108.45,108.46 a 2,2 -180 0 0 3.33,-2.01 L 69.18,445.64 a 2,2 -180 0 0 -2.84,-1.17 z"
   class="st9"
   id="path90"
   inkscape:connector-curvature="0"
   style="fill:#c00000;stroke:none;stroke-width:0.75" />
				</g>
				<g
   id="shape52-36"
   v:mID="52"
   v:groupContext="shape"
   transform="translate(0,-100.816)">
					<title
   id="title93">Tabelle.52</title>
					<circle
   cx="39.131199"
   cy="556.14398"
   class="st6"
   id="ellipse95"
   r="39.131199"
   style="fill:#c00000;stroke:none;stroke-width:0.25" />
				</g>
			</g>
			<g
   id="group54-38"
   transform="rotate(178.104,56.295592,525.84022)"
   v:mID="54"
   v:groupContext="group">
				<title
   id="title99">Tabelle.54</title>
				<g
   id="shape55-39"
   v:mID="55"
   v:groupContext="shape"
   transform="translate(5.50069)">
					<title
   id="title101">Tabelle.55</title>
					<path
   d="m 46.62,488.23 -44.21,23.1 a 2,2 -180 0 0 -0.48,3.18 l 74.99,75 a 2,2 -180 0 0 3.33,-2.01 L 49.46,489.41 a 2,2 -180 0 0 -2.84,-1.18 z"
   class="st10"
   id="path103"
   inkscape:connector-curvature="0"
   style="fill:#f2f2f2;stroke:none;stroke-width:0.75" />
				</g>
				<g
   id="shape56-41"
   v:mID="56"
   v:groupContext="shape"
   transform="translate(0,-71.7733)">
					<title
   id="title106">Tabelle.56</title>
					<circle
   cx="27.858299"
   cy="567.41699"
   class="st7"
   id="ellipse108"
   r="27.858299"
   style="fill:#f2f2f2;stroke:none;stroke-width:0.25" />
				</g>
			</g>
		</g>
		<g
   id="group86-43"
   transform="translate(36.8504,-72.4859)"
   v:mID="86"
   v:groupContext="group">
			<title
   id="title113">Tabelle.86</title>
			<g
   id="group75-44"
   v:mID="75"
   v:groupContext="group">
				<title
   id="title115">Tabelle.75</title>
				<g
   id="shape61-45"
   v:mID="61"
   v:groupContext="shape">
					<title
   id="title117">Tabelle.61</title>
					<ellipse
   cx="9.9212599"
   cy="585.45599"
   rx="9.9212599"
   ry="9.8200197"
   class="st8"
   id="ellipse119"
   style="fill:#a5a5a5;stroke:none;stroke-width:0.25" />
				</g>
				<g
   id="group68-47"
   transform="translate(6.83858,-6.6851)"
   v:mID="68"
   v:groupContext="group">
					<title
   id="title122">Tabelle.68</title>
					<g
   id="shape66-48"
   v:mID="66"
   v:groupContext="shape"
   transform="rotate(45.4815,7.4800031,592.14061)">
						<title
   id="title124">Tabelle.66</title>
						<path
   d="M 0,595.28 H 8.79"
   class="st11"
   id="path126"
   inkscape:connector-curvature="0"
   style="stroke:#7f7f7f;stroke-width:2.75;stroke-linecap:round;stroke-linejoin:round" />
					</g>
					<g
   id="shape67-51"
   v:mID="67"
   v:groupContext="shape"
   transform="rotate(135,4.3811485,593.41803)">
						<title
   id="title129">Tabelle.67</title>
						<path
   d="M 0,595.28 H 8.72"
   class="st11"
   id="path131"
   inkscape:connector-curvature="0"
   style="stroke:#7f7f7f;stroke-width:2.75;stroke-linecap:round;stroke-linejoin:round" />
					</g>
				</g>
			</g>
			<g
   id="group76-54"
   transform="translate(289.134)"
   v:mID="76"
   v:groupContext="group">
				<title
   id="title136">Tabelle.76</title>
				<g
   id="shape77-55"
   v:mID="77"
   v:groupContext="shape">
					<title
   id="title138">Tabelle.77</title>
					<ellipse
   cx="9.9212599"
   cy="585.45599"
   rx="9.9212599"
   ry="9.8200197"
   class="st8"
   id="ellipse140"
   style="fill:#a5a5a5;stroke:none;stroke-width:0.25" />
				</g>
				<g
   id="group78-57"
   transform="translate(6.83858,-6.6851)"
   v:mID="78"
   v:groupContext="group">
					<title
   id="title143">Tabelle.78</title>
					<g
   id="shape79-58"
   v:mID="79"
   v:groupContext="shape"
   transform="rotate(45.4815,7.4800031,592.14061)">
						<title
   id="title145">Tabelle.79</title>
						<path
   d="M 0,595.28 H 8.79"
   class="st11"
   id="path147"
   inkscape:connector-curvature="0"
   style="stroke:#7f7f7f;stroke-width:2.75;stroke-linecap:round;stroke-linejoin:round" />
					</g>
					<g
   id="shape80-61"
   v:mID="80"
   v:groupContext="shape"
   transform="rotate(135,4.3811485,593.41803)">
						<title
   id="title150">Tabelle.80</title>
						<path
   d="M 0,595.28 H 8.72"
   class="st11"
   id="path152"
   inkscape:connector-curvature="0"
   style="stroke:#7f7f7f;stroke-width:2.75;stroke-linecap:round;stroke-linejoin:round" />
					</g>
				</g>
			</g>
		</g>
		<g
   id="group87-64"
   transform="translate(36.8504,-533.116)"
   v:mID="87"
   v:groupContext="group">
			<title
   id="title158">Tabelle.87</title>
			<g
   id="shape88-65"
   v:mID="88"
   v:groupContext="shape">
				<title
   id="title160">Tabelle.88</title>
				<ellipse
   cx="9.9212599"
   cy="585.45599"
   rx="9.9212599"
   ry="9.8200197"
   class="st8"
   id="ellipse162"
   style="fill:#a5a5a5;stroke:none;stroke-width:0.25" />
			</g>
			<g
   id="group89-67"
   transform="translate(6.83858,-6.6851)"
   v:mID="89"
   v:groupContext="group">
				<title
   id="title165">Tabelle.89</title>
				<g
   id="shape90-68"
   v:mID="90"
   v:groupContext="shape"
   transform="rotate(45.4815,7.4800031,592.14061)">
					<title
   id="title167">Tabelle.90</title>
					<path
   d="M 0,595.28 H 8.79"
   class="st11"
   id="path169"
   inkscape:connector-curvature="0"
   style="stroke:#7f7f7f;stroke-width:2.75;stroke-linecap:round;stroke-linejoin:round" />
				</g>
				<g
   id="shape91-71"
   v:mID="91"
   v:groupContext="shape"
   transform="rotate(135,4.3811485,593.41803)">
					<title
   id="title172">Tabelle.91</title>
					<path
   d="M 0,595.28 H 8.72"
   class="st11"
   id="path174"
   inkscape:connector-curvature="0"
   style="stroke:#7f7f7f;stroke-width:2.75;stroke-linecap:round;stroke-linejoin:round" />
				</g>
			</g>
		</g>
		<g
   id="group92-74"
   transform="translate(325.984,-533.116)"
   v:mID="92"
   v:groupContext="group">
			<title
   id="title179">Tabelle.92</title>
			<g
   id="shape93-75"
   v:mID="93"
   v:groupContext="shape">
				<title
   id="title181">Tabelle.93</title>
				<ellipse
   cx="9.9212599"
   cy="585.45599"
   rx="9.9212599"
   ry="9.8200197"
   class="st8"
   id="ellipse183"
   style="fill:#a5a5a5;stroke:none;stroke-width:0.25" />
			</g>
			<g
   id="group94-77"
   transform="translate(6.83858,-6.6851)"
   v:mID="94"
   v:groupContext="group">
				<title
   id="title186">Tabelle.94</title>
				<g
   id="shape95-78"
   v:mID="95"
   v:groupContext="shape"
   transform="rotate(45.4815,7.4800031,592.14061)">
					<title
   id="title188">Tabelle.95</title>
					<path
   d="M 0,595.28 H 8.79"
   class="st11"
   id="path190"
   inkscape:connector-curvature="0"
   style="stroke:#7f7f7f;stroke-width:2.75;stroke-linecap:round;stroke-linejoin:round" />
				</g>
				<g
   id="shape96-81"
   v:mID="96"
   v:groupContext="shape"
   transform="rotate(135,4.3811485,593.41803)">
					<title
   id="title193">Tabelle.96</title>
					<path
   d="M 0,595.28 H 8.72"
   class="st11"
   id="path195"
   inkscape:connector-curvature="0"
   style="stroke:#7f7f7f;stroke-width:2.75;stroke-linecap:round;stroke-linejoin:round" />
				</g>
			</g>
		</g>
		<g
   id="group97-84"
   transform="translate(60.6614,-189.921)"
   v:mID="97"
   v:groupContext="group">
			<title
   id="title200">Tabelle.97</title>
			<g
   id="shape98-85"
   v:mID="98"
   v:groupContext="shape">
				<title
   id="title202">Tabelle.98</title>
				<ellipse
   cx="9.9212599"
   cy="585.45599"
   rx="9.9212599"
   ry="9.8200197"
   class="st8"
   id="ellipse204"
   style="fill:#a5a5a5;stroke:none;stroke-width:0.25" />
			</g>
			<g
   id="group99-87"
   transform="translate(6.83858,-6.6851)"
   v:mID="99"
   v:groupContext="group">
				<title
   id="title207">Tabelle.99</title>
				<g
   id="shape100-88"
   v:mID="100"
   v:groupContext="shape"
   transform="rotate(45.4815,7.4800031,592.14061)">
					<title
   id="title209">Tabelle.100</title>
					<path
   d="M 0,595.28 H 8.79"
   class="st11"
   id="path211"
   inkscape:connector-curvature="0"
   style="stroke:#7f7f7f;stroke-width:2.75;stroke-linecap:round;stroke-linejoin:round" />
				</g>
				<g
   id="shape101-91"
   v:mID="101"
   v:groupContext="shape"
   transform="rotate(135,4.3811485,593.41803)">
					<title
   id="title214">Tabelle.101</title>
					<path
   d="M 0,595.28 H 8.72"
   class="st11"
   id="path216"
   inkscape:connector-curvature="0"
   style="stroke:#7f7f7f;stroke-width:2.75;stroke-linecap:round;stroke-linejoin:round" />
				</g>
			</g>
		</g>
		<g
   id="group219-94"
   transform="translate(81.5433,-102.047)"
   v:mID="219"
   v:groupContext="group">
			<title
   id="title221">Tabelle.219</title>
			<g
   id="shape215-95"
   v:mID="215"
   v:groupContext="shape">
				<title
   id="title223">Tabelle.215</title>
				<path
   d="M 26.49,514.43 26.17,532.91 0,559.09 22.2,581.67 v 13.61 h 72 v -15.31 l 24.52,-24.52 h 21.41 l 9.07,-8.93 h 15.87 l 14.74,14.74 h 11.91 l 10.2,-10.2 -36.42,-36.43 H 136.72 L 124.7,526.65 H 74.36 L 62.28,514.57 Z"
   class="st12"
   id="path225"
   inkscape:connector-curvature="0"
   style="fill:#d8d8d8;stroke:none;stroke-width:0.75" />
			</g>
			<g
   id="shape216-97"
   v:mID="216"
   v:groupContext="shape"
   transform="translate(98.4129,-56.6929)">
				<title
   id="title228">Tabelle.216</title>
				<ellipse
   cx="4.2958002"
   cy="591.02399"
   rx="4.2958002"
   ry="4.2519698"
   class="st8"
   id="ellipse230"
   style="fill:#a5a5a5;stroke:none;stroke-width:0.25" />
			</g>
			<g
   id="shape217-99"
   v:mID="217"
   v:groupContext="shape"
   transform="translate(17.6693,-31.1811)">
				<title
   id="title233">Tabelle.217</title>
				<ellipse
   cx="4.2958002"
   cy="591.02399"
   rx="4.2958002"
   ry="4.2519698"
   class="st8"
   id="ellipse235"
   style="fill:#a5a5a5;stroke:none;stroke-width:0.25" />
			</g>
			<g
   id="shape218-101"
   v:mID="218"
   v:groupContext="shape"
   transform="translate(179.156,-42.5197)">
				<title
   id="title238">Tabelle.218</title>
				<ellipse
   cx="4.2958002"
   cy="591.02399"
   rx="4.2958002"
   ry="4.2519698"
   class="st8"
   id="ellipse240"
   style="fill:#a5a5a5;stroke:none;stroke-width:0.25" />
			</g>
		</g>
		<g
   id="shape220-103"
   v:mID="220"
   v:groupContext="shape"
   transform="translate(158.696,-109.134)">
			<title
   id="title244">Tabelle.220</title>
			<ellipse
   cx="4.2958002"
   cy="591.02399"
   rx="4.2958002"
   ry="4.2519698"
   class="st8"
   id="ellipse246"
   style="fill:#a5a5a5;stroke:none;stroke-width:0.25" />
		</g>
		<g
   id="shape221-105"
   v:mID="221"
   v:groupContext="shape"
   transform="translate(107.717,-227.339)">
			<title
   id="title249">Tabelle.221</title>
			<path
   d="m 0,595.28 v -37.42 l 15.59,7.37 z"
   class="st13"
   id="path251"
   inkscape:connector-curvature="0"
   style="fill:#595959;stroke:none;stroke-width:0.75" />
		</g>
	</g>
</svg>